<?xml version="1.0" encoding="UTF-8" standalone="no"?>
<!-- Created with Inkscape (http://www.inkscape.org/) -->

<svg
   xmlns:dc="http://purl.org/dc/elements/1.1/"
   xmlns:cc="http://creativecommons.org/ns#"
   xmlns:rdf="http://www.w3.org/1999/02/22-rdf-syntax-ns#"
   xmlns:svg="http://www.w3.org/2000/svg"
   xmlns="http://www.w3.org/2000/svg"
   xmlns:sodipodi="http://sodipodi.sourceforge.net/DTD/sodipodi-0.dtd"
   xmlns:inkscape="http://www.inkscape.org/namespaces/inkscape"
   width="3000"
   height="2000"
   id="svg2"
   version="1.1"
   inkscape:version="0.48.0 r9654"
   sodipodi:docname="measurements.svg"
   inkscape:export-xdpi="45"
   inkscape:export-ydpi="45">
  <defs
     id="defs4">
    <marker
       inkscape:stockid="StopL"
       orient="auto"
       refY="0"
       refX="0"
       id="StopL"
       style="overflow:visible">
      <path
         id="path4009"
         d="M 0,5.65 0,-5.65"
         style="fill:none;stroke:#000000;stroke-width:1pt"
         transform="scale(0.8,0.8)"
         inkscape:connector-curvature="0" />
    </marker>
  </defs>
  <sodipodi:namedview
     id="base"
     pagecolor="#ffffff"
     bordercolor="#666666"
     borderopacity="1.0"
     inkscape:pageopacity="1"
     inkscape:pageshadow="2"
     inkscape:zoom="0.25000001"
     inkscape:cx="1638.2276"
     inkscape:cy="726.40191"
     inkscape:document-units="px"
     inkscape:current-layer="svg2"
     showgrid="true"
     inkscape:showpageshadow="false"
     guidecolor="#ff0000"
     guideopacity="0.74901961"
     guidehicolor="#ff0000"
     guidehiopacity="0.74901961"
     showguides="false"
     inkscape:guide-bbox="true"
     inkscape:snap-global="true"
     inkscape:snap-grids="true"
     inkscape:snap-to-guides="true"
     inkscape:object-paths="false"
     fit-margin-top="0"
     fit-margin-left="0"
     fit-margin-right="0"
     fit-margin-bottom="0">
    <inkscape:grid
       type="xygrid"
       id="grid2985"
       empspacing="5"
       visible="true"
       enabled="true"
       snapvisiblegridlinesonly="true"
       spacingx="1px"
       spacingy="1px"
       dotted="false" />
    <sodipodi:guide
       orientation="0,1"
       position="240,720"
       id="guide3006" />
    <sodipodi:guide
       orientation="0,1"
       position="240,805"
       id="guide3008" />
    <sodipodi:guide
       orientation="0,1"
       position="240,1125"
       id="guide3105" />
    <sodipodi:guide
       orientation="0,1"
       position="240,1305"
       id="guide3104" />
    <sodipodi:guide
       orientation="0,1"
       position="240,795"
       id="guide3106" />
    <sodipodi:guide
       orientation="0,1"
       position="240,570"
       id="guide3311" />
    <sodipodi:guide
       orientation="0,1"
       position="240,495"
       id="guide3313" />
    <sodipodi:guide
       orientation="0,1"
       position="240,945"
       id="guide3163" />
    <sodipodi:guide
       orientation="0,1"
       position="240,1020"
       id="guide3165" />
    <sodipodi:guide
       orientation="0,1"
       position="240,1200"
       id="guide3167" />
    <sodipodi:guide
       orientation="0,1"
       position="240,1295"
       id="guide3172" />
    <sodipodi:guide
       orientation="0,1"
       position="240,1045"
       id="guide3162" />
    <sodipodi:guide
       orientation="0,1"
       position="240,1380"
       id="guide3206" />
    <sodipodi:guide
       orientation="1,0"
       position="2125,1090"
       id="guide7909" />
  </sodipodi:namedview>
  <metadata
     id="metadata7">
    <rdf:RDF>
      <cc:Work
         rdf:about="">
        <dc:format>image/svg+xml</dc:format>
        <dc:type
           rdf:resource="http://purl.org/dc/dcmitype/StillImage" />
        <dc:title />
      </cc:Work>
    </rdf:RDF>
  </metadata>
  <g
     id="g5141"
     transform="translate(240,520)">
    <path
       sodipodi:nodetypes="cc"
       inkscape:connector-curvature="0"
       id="path3768"
       d="m 5,140 895,0"
       style="fill:none;stroke:#ff0000;stroke-width:3;stroke-linecap:butt;stroke-linejoin:miter;stroke-miterlimit:4;stroke-opacity:1;stroke-dasharray:none;marker-start:none;marker-end:none" />
    <path
       d="m 5,140 c 0,2.76142 -2.2385763,5 -5,5 -2.7614237,0 -5,-2.23858 -5,-5 0,-2.76142 2.2385763,-5 5,-5 2.7614237,0 5,2.23858 5,5 z"
       sodipodi:ry="5"
       sodipodi:rx="5"
       sodipodi:cy="140"
       sodipodi:cx="0"
       id="path5138"
       style="fill:none;stroke:#ff0000;stroke-width:3;stroke-linecap:butt;stroke-linejoin:round;stroke-miterlimit:4;stroke-opacity:1;stroke-dasharray:none"
       sodipodi:type="arc" />
  </g>
  <g
     id="use5169"
     style="opacity:0.25"
     transform="translate(240,1105)">
    <path
       style="fill:none;stroke:#ff0000;stroke-width:3;stroke-linecap:butt;stroke-linejoin:miter;stroke-miterlimit:4;stroke-opacity:1;stroke-dasharray:none;marker-start:none;marker-end:none"
       d="m 5,140 895,0"
       id="path7451"
       inkscape:connector-curvature="0"
       sodipodi:nodetypes="cc" />
    <path
       sodipodi:type="arc"
       style="fill:none;stroke:#ff0000;stroke-width:3;stroke-linecap:butt;stroke-linejoin:round;stroke-miterlimit:4;stroke-opacity:1;stroke-dasharray:none"
       id="path7453"
       sodipodi:cx="0"
       sodipodi:cy="140"
       sodipodi:rx="5"
       sodipodi:ry="5"
       d="m 5,140 c 0,2.76142 -2.2385763,5 -5,5 -2.7614237,0 -5,-2.23858 -5,-5 0,-2.76142 2.2385763,-5 5,-5 2.7614237,0 5,2.23858 5,5 z" />
  </g>
  <g
     id="use5171"
     transform="translate(240,1095)">
    <path
       style="fill:none;stroke:#ff0000;stroke-width:3;stroke-linecap:butt;stroke-linejoin:miter;stroke-miterlimit:4;stroke-opacity:1;stroke-dasharray:none;marker-start:none;marker-end:none"
       d="m 5,140 895,0"
       id="path7445"
       inkscape:connector-curvature="0"
       sodipodi:nodetypes="cc" />
    <path
       sodipodi:type="arc"
       style="fill:none;stroke:#ff0000;stroke-width:3;stroke-linecap:butt;stroke-linejoin:round;stroke-miterlimit:4;stroke-opacity:1;stroke-dasharray:none"
       id="path7447"
       sodipodi:cx="0"
       sodipodi:cy="140"
       sodipodi:rx="5"
       sodipodi:ry="5"
       d="m 5,140 c 0,2.76142 -2.2385763,5 -5,5 -2.7614237,0 -5,-2.23858 -5,-5 0,-2.76142 2.2385763,-5 5,-5 2.7614237,0 5,2.23858 5,5 z" />
  </g>
  <g
     id="use5173"
     style="opacity:0.25"
     transform="translate(240,955)">
    <path
       style="fill:none;stroke:#ff0000;stroke-width:3;stroke-linecap:butt;stroke-linejoin:miter;stroke-miterlimit:4;stroke-opacity:1;stroke-dasharray:none;marker-start:none;marker-end:none"
       d="m 5,140 895,0"
       id="path7439"
       inkscape:connector-curvature="0"
       sodipodi:nodetypes="cc" />
    <path
       sodipodi:type="arc"
       style="fill:none;stroke:#ff0000;stroke-width:3;stroke-linecap:butt;stroke-linejoin:round;stroke-miterlimit:4;stroke-opacity:1;stroke-dasharray:none"
       id="path7441"
       sodipodi:cx="0"
       sodipodi:cy="140"
       sodipodi:rx="5"
       sodipodi:ry="5"
       d="m 5,140 c 0,2.76142 -2.2385763,5 -5,5 -2.7614237,0 -5,-2.23858 -5,-5 0,-2.76142 2.2385763,-5 5,-5 2.7614237,0 5,2.23858 5,5 z" />
  </g>
  <g
     id="use5175"
     style="opacity:0.25"
     transform="translate(240,880)">
    <path
       style="fill:none;stroke:#ff0000;stroke-width:3;stroke-linecap:butt;stroke-linejoin:miter;stroke-miterlimit:4;stroke-opacity:1;stroke-dasharray:none;marker-start:none;marker-end:none"
       d="m 5,140 895,0"
       id="path7433"
       inkscape:connector-curvature="0"
       sodipodi:nodetypes="cc" />
    <path
       sodipodi:type="arc"
       style="fill:none;stroke:#ff0000;stroke-width:3;stroke-linecap:butt;stroke-linejoin:round;stroke-miterlimit:4;stroke-opacity:1;stroke-dasharray:none"
       id="path7435"
       sodipodi:cx="0"
       sodipodi:cy="140"
       sodipodi:rx="5"
       sodipodi:ry="5"
       d="m 5,140 c 0,2.76142 -2.2385763,5 -5,5 -2.7614237,0 -5,-2.23858 -5,-5 0,-2.76142 2.2385763,-5 5,-5 2.7614237,0 5,2.23858 5,5 z" />
  </g>
  <g
     id="use5177"
     transform="translate(240,855)">
    <path
       style="fill:none;stroke:#ff0000;stroke-width:3;stroke-linecap:butt;stroke-linejoin:miter;stroke-miterlimit:4;stroke-opacity:1;stroke-dasharray:none;marker-start:none;marker-end:none"
       d="m 5,140 895,0"
       id="path7427"
       inkscape:connector-curvature="0"
       sodipodi:nodetypes="cc" />
    <path
       sodipodi:type="arc"
       style="fill:none;stroke:#ff0000;stroke-width:3;stroke-linecap:butt;stroke-linejoin:round;stroke-miterlimit:4;stroke-opacity:1;stroke-dasharray:none"
       id="path7429"
       sodipodi:cx="0"
       sodipodi:cy="140"
       sodipodi:rx="5"
       sodipodi:ry="5"
       d="m 5,140 c 0,2.76142 -2.2385763,5 -5,5 -2.7614237,0 -5,-2.23858 -5,-5 0,-2.76142 2.2385763,-5 5,-5 2.7614237,0 5,2.23858 5,5 z" />
  </g>
  <g
     id="use5179"
     style="opacity:0.25"
     transform="translate(240,775)">
    <path
       style="fill:none;stroke:#ff0000;stroke-width:3;stroke-linecap:butt;stroke-linejoin:miter;stroke-miterlimit:4;stroke-opacity:1;stroke-dasharray:none;marker-start:none;marker-end:none"
       d="m 5,140 895,0"
       id="path7421"
       inkscape:connector-curvature="0"
       sodipodi:nodetypes="cc" />
    <path
       sodipodi:type="arc"
       style="fill:none;stroke:#ff0000;stroke-width:3;stroke-linecap:butt;stroke-linejoin:round;stroke-miterlimit:4;stroke-opacity:1;stroke-dasharray:none"
       id="path7423"
       sodipodi:cx="0"
       sodipodi:cy="140"
       sodipodi:rx="5"
       sodipodi:ry="5"
       d="m 5,140 c 0,2.76142 -2.2385763,5 -5,5 -2.7614237,0 -5,-2.23858 -5,-5 0,-2.76142 2.2385763,-5 5,-5 2.7614237,0 5,2.23858 5,5 z" />
  </g>
  <g
     id="use5181"
     style="opacity:0.25"
     transform="translate(240,700)">
    <path
       style="fill:none;stroke:#ff0000;stroke-width:3;stroke-linecap:butt;stroke-linejoin:miter;stroke-miterlimit:4;stroke-opacity:1;stroke-dasharray:none;marker-start:none;marker-end:none"
       d="m 5,140 895,0"
       id="path7415"
       inkscape:connector-curvature="0"
       sodipodi:nodetypes="cc" />
    <path
       sodipodi:type="arc"
       style="fill:none;stroke:#ff0000;stroke-width:3;stroke-linecap:butt;stroke-linejoin:round;stroke-miterlimit:4;stroke-opacity:1;stroke-dasharray:none"
       id="path7417"
       sodipodi:cx="0"
       sodipodi:cy="140"
       sodipodi:rx="5"
       sodipodi:ry="5"
       d="m 5,140 c 0,2.76142 -2.2385763,5 -5,5 -2.7614237,0 -5,-2.23858 -5,-5 0,-2.76142 2.2385763,-5 5,-5 2.7614237,0 5,2.23858 5,5 z" />
  </g>
  <g
     id="use5183"
     transform="translate(240,605)">
    <path
       style="fill:none;stroke:#ff0000;stroke-width:3;stroke-linecap:butt;stroke-linejoin:miter;stroke-miterlimit:4;stroke-opacity:1;stroke-dasharray:none;marker-start:none;marker-end:none"
       d="m 5,140 895,0"
       id="path7409"
       inkscape:connector-curvature="0"
       sodipodi:nodetypes="cc" />
    <path
       sodipodi:type="arc"
       style="fill:none;stroke:#ff0000;stroke-width:3;stroke-linecap:butt;stroke-linejoin:round;stroke-miterlimit:4;stroke-opacity:1;stroke-dasharray:none"
       id="path7411"
       sodipodi:cx="0"
       sodipodi:cy="140"
       sodipodi:rx="5"
       sodipodi:ry="5"
       d="m 5,140 c 0,2.76142 -2.2385763,5 -5,5 -2.7614237,0 -5,-2.23858 -5,-5 0,-2.76142 2.2385763,-5 5,-5 2.7614237,0 5,2.23858 5,5 z" />
  </g>
  <g
     id="use5185"
     style="opacity:0.25"
     transform="translate(240,595)">
    <path
       style="fill:none;stroke:#ff0000;stroke-width:3;stroke-linecap:butt;stroke-linejoin:miter;stroke-miterlimit:4;stroke-opacity:1;stroke-dasharray:none;marker-start:none;marker-end:none"
       d="m 5,140 895,0"
       id="path7403"
       inkscape:connector-curvature="0"
       sodipodi:nodetypes="cc" />
    <path
       sodipodi:type="arc"
       style="fill:none;stroke:#ff0000;stroke-width:3;stroke-linecap:butt;stroke-linejoin:round;stroke-miterlimit:4;stroke-opacity:1;stroke-dasharray:none"
       id="path7405"
       sodipodi:cx="0"
       sodipodi:cy="140"
       sodipodi:rx="5"
       sodipodi:ry="5"
       d="m 5,140 c 0,2.76142 -2.2385763,5 -5,5 -2.7614237,0 -5,-2.23858 -5,-5 0,-2.76142 2.2385763,-5 5,-5 2.7614237,0 5,2.23858 5,5 z" />
  </g>
  <text
     xml:space="preserve"
     style="font-size:32px;font-style:normal;font-variant:normal;font-weight:normal;font-stretch:normal;text-align:start;line-height:125%;letter-spacing:0px;word-spacing:0px;writing-mode:lr-tb;text-anchor:start;fill:#000000;fill-opacity:1;stroke:none;font-family:Nimbus Sans L;-inkscape-font-specification:Nimbus Sans L"
     x="125"
     y="1320"
     id="text3018"
     sodipodi:linespacing="125%"><tspan
       sodipodi:role="line"
       id="tspan3020"
       x="125"
       y="1320">(0,200)</tspan></text>
  <text
     sodipodi:linespacing="125%"
     id="text3022"
     y="660"
     x="125"
     style="font-size:32px;font-style:normal;font-variant:normal;font-weight:normal;font-stretch:normal;text-align:start;line-height:125%;letter-spacing:0px;word-spacing:0px;writing-mode:lr-tb;text-anchor:start;fill:#000000;fill-opacity:1;stroke:none;font-family:Nimbus Sans L;-inkscape-font-specification:Nimbus Sans L"
     xml:space="preserve"><tspan
       y="660"
       x="125"
       id="tspan3024"
       sodipodi:role="line">(0,860)</tspan></text>
  <text
     xml:space="preserve"
     style="font-size:32px;font-style:normal;font-variant:normal;font-weight:normal;font-stretch:normal;text-align:start;line-height:125%;letter-spacing:0px;word-spacing:0px;writing-mode:lr-tb;text-anchor:start;fill:#000000;fill-opacity:1;stroke:none;font-family:Nimbus Sans L;-inkscape-font-specification:Nimbus Sans L"
     x="125"
     y="745"
     id="text3030"
     sodipodi:linespacing="125%"><tspan
       sodipodi:role="line"
       id="tspan3032"
       x="125"
       y="745">(0,775)</tspan></text>
  <text
     sodipodi:linespacing="125%"
     id="text3034"
     y="995"
     x="125"
     style="font-size:32px;font-style:normal;font-variant:normal;font-weight:normal;font-stretch:normal;text-align:start;line-height:125%;letter-spacing:0px;word-spacing:0px;writing-mode:lr-tb;text-anchor:start;fill:#000000;fill-opacity:1;stroke:none;font-family:Nimbus Sans L;-inkscape-font-specification:Nimbus Sans L"
     xml:space="preserve"><tspan
       y="995"
       x="125"
       id="tspan3036"
       sodipodi:role="line">(0,525)</tspan></text>
  <text
     xml:space="preserve"
     style="font-size:32px;font-style:normal;font-variant:normal;font-weight:normal;font-stretch:normal;text-align:start;line-height:125%;letter-spacing:0px;word-spacing:0px;writing-mode:lr-tb;text-anchor:start;fill:#000000;fill-opacity:1;stroke:none;font-family:Nimbus Sans L;-inkscape-font-specification:Nimbus Sans L"
     x="125"
     y="1235"
     id="text3038"
     sodipodi:linespacing="125%"><tspan
       sodipodi:role="line"
       id="tspan3040"
       x="125"
       y="1235">(0,285)</tspan></text>
  <g
     id="g3042"
     transform="translate(240,1180)">
    <path
       style="fill:none;stroke:#ff0000;stroke-width:9;stroke-linecap:butt;stroke-linejoin:miter;stroke-miterlimit:4;stroke-opacity:1;stroke-dasharray:none;marker-start:none;marker-end:none"
       d="m 5,140 895,0"
       id="path3044"
       inkscape:connector-curvature="0"
       sodipodi:nodetypes="cc" />
    <path
       sodipodi:type="arc"
       style="fill:none;stroke:#ff0000;stroke-width:3;stroke-linecap:butt;stroke-linejoin:round;stroke-miterlimit:4;stroke-opacity:1;stroke-dasharray:none"
       id="path3046"
       sodipodi:cx="0"
       sodipodi:cy="140"
       sodipodi:rx="5"
       sodipodi:ry="5"
       d="m 5,140 c 0,2.76142 -2.2385763,5 -5,5 -2.7614237,0 -5,-2.23858 -5,-5 0,-2.76142 2.2385763,-5 5,-5 2.7614237,0 5,2.23858 5,5 z" />
  </g>
  <path
     style="fill:none;stroke:#000000;stroke-width:3;stroke-linecap:butt;stroke-linejoin:miter;stroke-miterlimit:4;stroke-opacity:1;stroke-dasharray:none;marker-start:url(#StopL);marker-mid:none;marker-end:url(#StopL)"
     d="m 1195,660 0,85"
     id="path3834"
     inkscape:connector-curvature="0" />
  <path
     inkscape:connector-curvature="0"
     id="path5659"
     d="m 1160,745 0,165"
     style="fill:none;stroke:#000000;stroke-width:3;stroke-linecap:butt;stroke-linejoin:miter;stroke-miterlimit:4;stroke-opacity:1;stroke-dasharray:none;marker-start:url(#StopL);marker-mid:none;marker-end:url(#StopL)"
     sodipodi:nodetypes="cc" />
  <path
     inkscape:connector-curvature="0"
     id="path5661"
     d="m 1195,910 0,85"
     style="fill:none;stroke:#000000;stroke-width:3;stroke-linecap:butt;stroke-linejoin:miter;stroke-miterlimit:4;stroke-opacity:1;stroke-dasharray:none;marker-start:url(#StopL);marker-mid:none;marker-end:url(#StopL)" />
  <path
     sodipodi:nodetypes="cc"
     style="fill:none;stroke:#000000;stroke-width:3;stroke-linecap:butt;stroke-linejoin:miter;stroke-miterlimit:4;stroke-opacity:1;stroke-dasharray:none;marker-start:url(#StopL);marker-mid:none;marker-end:url(#StopL)"
     d="m 1160,995 0,240"
     id="path5663"
     inkscape:connector-curvature="0" />
  <path
     style="fill:none;stroke:#000000;stroke-width:3;stroke-linecap:butt;stroke-linejoin:miter;stroke-miterlimit:4;stroke-opacity:1;stroke-dasharray:none;marker-start:url(#StopL);marker-mid:none;marker-end:url(#StopL)"
     d="m 1195,1235 0,85"
     id="path5667"
     inkscape:connector-curvature="0" />
  <text
     xml:space="preserve"
     style="font-size:32px;font-style:normal;font-variant:normal;font-weight:normal;font-stretch:normal;text-align:start;line-height:125%;letter-spacing:0px;word-spacing:0px;writing-mode:lr-tb;text-anchor:start;fill:#000000;fill-opacity:1;stroke:none;font-family:Nimbus Sans L;-inkscape-font-specification:Nimbus Sans L"
     x="1210"
     y="710"
     id="text5669"
     sodipodi:linespacing="125%"><tspan
       sodipodi:role="line"
       id="tspan5671"
       x="1210"
       y="710">85</tspan></text>
  <text
     sodipodi:linespacing="125%"
     id="text5673"
     y="960"
     x="1210"
     style="font-size:32px;font-style:normal;font-variant:normal;font-weight:normal;font-stretch:normal;text-align:start;line-height:125%;letter-spacing:0px;word-spacing:0px;writing-mode:lr-tb;text-anchor:start;fill:#000000;fill-opacity:1;stroke:none;font-family:Nimbus Sans L;-inkscape-font-specification:Nimbus Sans L"
     xml:space="preserve"><tspan
       y="960"
       x="1210"
       id="tspan5675"
       sodipodi:role="line">85</tspan></text>
  <text
     xml:space="preserve"
     style="font-size:32px;font-style:normal;font-variant:normal;font-weight:normal;font-stretch:normal;text-align:start;line-height:125%;letter-spacing:0px;word-spacing:0px;writing-mode:lr-tb;text-anchor:start;fill:#000000;fill-opacity:1;stroke:none;font-family:Nimbus Sans L;-inkscape-font-specification:Nimbus Sans L"
     x="1210"
     y="1290"
     id="text5677"
     sodipodi:linespacing="125%"><tspan
       sodipodi:role="line"
       id="tspan5679"
       x="1210"
       y="1290">85</tspan></text>
  <text
     sodipodi:linespacing="125%"
     id="text5687"
     y="840"
     x="1170"
     style="font-size:32px;font-style:normal;font-variant:normal;font-weight:normal;font-stretch:normal;text-align:start;line-height:125%;letter-spacing:0px;word-spacing:0px;writing-mode:lr-tb;text-anchor:start;fill:#000000;fill-opacity:1;stroke:none;font-family:Nimbus Sans L;-inkscape-font-specification:Nimbus Sans L"
     xml:space="preserve"><tspan
       y="840"
       x="1170"
       id="tspan5689"
       sodipodi:role="line">165</tspan></text>
  <text
     xml:space="preserve"
     style="font-size:32px;font-style:normal;font-variant:normal;font-weight:normal;font-stretch:normal;text-align:start;line-height:125%;letter-spacing:0px;word-spacing:0px;writing-mode:lr-tb;text-anchor:start;fill:#000000;fill-opacity:1;stroke:none;font-family:Nimbus Sans L;-inkscape-font-specification:Nimbus Sans L"
     x="1170"
     y="1120"
     id="text5693"
     sodipodi:linespacing="125%"><tspan
       sodipodi:role="line"
       id="tspan5695"
       x="1170"
       y="1120">240</tspan></text>
  <path
     inkscape:connector-curvature="0"
     id="path5697"
     d="m 300,580 150,0"
     style="fill:none;stroke:#000000;stroke-width:3;stroke-linecap:butt;stroke-linejoin:miter;stroke-miterlimit:4;stroke-opacity:1;stroke-dasharray:none;marker-start:url(#StopL);marker-mid:none;marker-end:url(#StopL)"
     sodipodi:nodetypes="cc" />
  <path
     sodipodi:nodetypes="cc"
     style="fill:none;stroke:#000000;stroke-width:3;stroke-linecap:butt;stroke-linejoin:miter;stroke-miterlimit:4;stroke-opacity:1;stroke-dasharray:none;marker-start:url(#StopL);marker-mid:none;marker-end:url(#StopL)"
     d="m 450,620 450,0"
     id="path5699"
     inkscape:connector-curvature="0" />
  <path
     sodipodi:nodetypes="cc"
     style="fill:none;stroke:#000000;stroke-width:3;stroke-linecap:butt;stroke-linejoin:miter;stroke-miterlimit:4;stroke-opacity:1;stroke-dasharray:none;marker-start:url(#StopL);marker-mid:none;marker-end:url(#StopL)"
     d="m 900,580 150,0"
     id="path5701"
     inkscape:connector-curvature="0" />
  <text
     xml:space="preserve"
     style="font-size:32px;font-style:normal;font-variant:normal;font-weight:normal;font-stretch:normal;text-align:start;line-height:125%;letter-spacing:0px;word-spacing:0px;writing-mode:lr-tb;text-anchor:start;fill:#000000;fill-opacity:1;stroke:none;font-family:Nimbus Sans L;-inkscape-font-specification:Nimbus Sans L"
     x="340"
     y="570"
     id="text5703"
     sodipodi:linespacing="125%"><tspan
       sodipodi:role="line"
       id="tspan5705"
       x="340"
       y="570">150</tspan></text>
  <text
     sodipodi:linespacing="125%"
     id="text5707"
     y="570"
     x="950"
     style="font-size:32px;font-style:normal;font-variant:normal;font-weight:normal;font-stretch:normal;text-align:start;line-height:125%;letter-spacing:0px;word-spacing:0px;writing-mode:lr-tb;text-anchor:start;fill:#000000;fill-opacity:1;stroke:none;font-family:Nimbus Sans L;-inkscape-font-specification:Nimbus Sans L"
     xml:space="preserve"><tspan
       y="570"
       x="950"
       id="tspan5709"
       sodipodi:role="line">150</tspan></text>
  <text
     xml:space="preserve"
     style="font-size:32px;font-style:normal;font-variant:normal;font-weight:normal;font-stretch:normal;text-align:start;line-height:125%;letter-spacing:0px;word-spacing:0px;writing-mode:lr-tb;text-anchor:start;fill:#000000;fill-opacity:1;stroke:none;font-family:Nimbus Sans L;-inkscape-font-specification:Nimbus Sans L"
     x="650"
     y="610"
     id="text5711"
     sodipodi:linespacing="125%"><tspan
       sodipodi:role="line"
       id="tspan5713"
       x="650"
       y="610">450</tspan></text>
  <path
     inkscape:connector-curvature="0"
     id="path5715"
     d="m 300,520 750,0"
     style="fill:none;stroke:#000000;stroke-width:6;stroke-linecap:butt;stroke-linejoin:miter;stroke-miterlimit:4;stroke-opacity:1;stroke-dasharray:none;marker-start:url(#StopL);marker-mid:none;marker-end:url(#StopL)"
     sodipodi:nodetypes="cc" />
  <text
     sodipodi:linespacing="125%"
     id="text5717"
     y="500"
     x="650"
     style="font-size:32px;font-style:normal;font-variant:normal;font-weight:bold;font-stretch:normal;text-align:start;line-height:125%;letter-spacing:0px;word-spacing:0px;writing-mode:lr-tb;text-anchor:start;fill:#000000;fill-opacity:1;stroke:none;font-family:Nimbus Sans L;-inkscape-font-specification:Nimbus Sans L Bold"
     xml:space="preserve"><tspan
       y="500"
       x="650"
       id="tspan5719"
       sodipodi:role="line">750</tspan></text>
  <path
     sodipodi:nodetypes="cc"
     style="fill:none;stroke:#000000;stroke-width:6;stroke-linecap:butt;stroke-linejoin:miter;stroke-miterlimit:4;stroke-opacity:1;stroke-dasharray:none;marker-start:url(#StopL);marker-mid:none;marker-end:url(#StopL)"
     d="m 1280,660 0,660"
     id="path5721"
     inkscape:connector-curvature="0" />
  <text
     xml:space="preserve"
     style="font-size:32px;font-style:normal;font-variant:normal;font-weight:bold;font-stretch:normal;text-align:start;line-height:125%;letter-spacing:0px;word-spacing:0px;writing-mode:lr-tb;text-anchor:start;fill:#000000;fill-opacity:1;stroke:none;font-family:Nimbus Sans L;-inkscape-font-specification:Nimbus Sans L Bold"
     x="1300"
     y="1020"
     id="text5723"
     sodipodi:linespacing="125%"><tspan
       sodipodi:role="line"
       id="tspan5725"
       x="1300"
       y="1020">660</tspan></text>
  <path
     style="fill:#000000;stroke:none"
     d="m 540,660 c -120,0 -240,0 -240,120 l 0,95 c 0,120 120,120 240,120 l 300,0 c 30,0 60,0 60,30 l 0,180 c 0,30 -30,30 -60,30 l -540,0 0,85 510,0 c 120,0 240,0 240,-120 l 0,-170 C 1050,910 930,910 810,910 l -300,0 c -30,0 -60,0 -60,-30 l 0,-105 c 0,-30 30,-30 60,-30 l 490,0 0,-85 -460,0 z"
     id="path3156"
     inkscape:connector-curvature="0" />
  <g
     id="g6939"
     transform="translate(240,515)">
    <path
       sodipodi:nodetypes="cc"
       inkscape:connector-curvature="0"
       id="path5727"
       d="m 810,515 0,-115"
       style="fill:none;stroke:#00ff00;stroke-width:3;stroke-linecap:butt;stroke-linejoin:miter;stroke-miterlimit:4;stroke-opacity:1;stroke-dasharray:none;marker-start:none;marker-end:none" />
    <path
       inkscape:connector-curvature="0"
       id="path6935"
       d="m 805,510 0,10 10,0 0,-10 z"
       style="fill:#00ff00;stroke:none"
       sodipodi:nodetypes="ccccc" />
    <path
       d="m 815,395 c 0,2.76142 -2.23858,5 -5,5 -2.76142,0 -5,-2.23858 -5,-5 0,-2.76142 2.23858,-5 5,-5 2.76142,0 5,2.23858 5,5 z"
       sodipodi:ry="5"
       sodipodi:rx="5"
       sodipodi:cy="395"
       sodipodi:cx="810"
       id="path6937"
       style="fill:none;stroke:#00ff00;stroke-width:3;stroke-linecap:butt;stroke-linejoin:round;stroke-miterlimit:4;stroke-opacity:1;stroke-dasharray:none"
       sodipodi:type="arc" />
  </g>
  <g
     transform="matrix(0,1,-1,0,1325,100)"
     id="use6952">
    <path
       style="fill:none;stroke:#00ff00;stroke-width:3;stroke-linecap:butt;stroke-linejoin:miter;stroke-miterlimit:4;stroke-opacity:1;stroke-dasharray:none;marker-start:none;marker-end:none"
       d="m 810,515 0,-115"
       id="path7383"
       inkscape:connector-curvature="0"
       sodipodi:nodetypes="cc" />
    <path
       sodipodi:nodetypes="ccccc"
       style="fill:#00ff00;stroke:none"
       d="m 805,510 0,10 10,0 0,-10 z"
       id="path7385"
       inkscape:connector-curvature="0" />
    <path
       sodipodi:type="arc"
       style="fill:none;stroke:#00ff00;stroke-width:3;stroke-linecap:butt;stroke-linejoin:round;stroke-miterlimit:4;stroke-opacity:1;stroke-dasharray:none"
       id="path7387"
       sodipodi:cx="810"
       sodipodi:cy="395"
       sodipodi:rx="5"
       sodipodi:ry="5"
       d="m 815,395 c 0,2.76142 -2.23858,5 -5,5 -2.76142,0 -5,-2.23858 -5,-5 0,-2.76142 2.23858,-5 5,-5 2.76142,0 5,2.23858 5,5 z" />
  </g>
  <text
     sodipodi:linespacing="125%"
     id="text6954"
     y="980"
     x="1060"
     style="font-size:32px;font-style:normal;font-variant:normal;font-weight:normal;font-stretch:normal;text-align:start;line-height:125%;letter-spacing:0px;word-spacing:0px;writing-mode:lr-tb;text-anchor:start;fill:#008000;fill-opacity:1;stroke:none;font-family:Nimbus Sans L;-inkscape-font-specification:Nimbus Sans L"
     xml:space="preserve"><tspan
       y="980"
       x="1060"
       id="tspan6956"
       sodipodi:role="line">120</tspan></text>
  <text
     xml:space="preserve"
     style="font-size:32px;font-style:normal;font-variant:normal;font-weight:normal;font-stretch:normal;text-align:start;line-height:125%;letter-spacing:0px;word-spacing:0px;writing-mode:lr-tb;text-anchor:start;fill:#008000;fill-opacity:1;stroke:none;font-family:Nimbus Sans L;-inkscape-font-specification:Nimbus Sans L"
     x="840"
     y="900"
     id="text6960"
     sodipodi:linespacing="125%"><tspan
       sodipodi:role="line"
       id="tspan6962"
       x="840"
       y="900">120</tspan></text>
  <text
     sodipodi:linespacing="125%"
     id="text6964"
     y="900"
     x="960"
     style="font-size:32px;font-style:normal;font-variant:normal;font-weight:normal;font-stretch:normal;text-align:start;line-height:125%;letter-spacing:0px;word-spacing:0px;writing-mode:lr-tb;text-anchor:start;fill:#008000;fill-opacity:1;stroke:none;font-family:Nimbus Sans L;-inkscape-font-specification:Nimbus Sans L"
     xml:space="preserve"><tspan
       y="900"
       x="960"
       id="tspan6966"
       sodipodi:role="line">120</tspan></text>
  <g
     transform="translate(90,510)"
     id="g6970">
    <path
       style="fill:none;stroke:#00ff00;stroke-width:3;stroke-linecap:butt;stroke-linejoin:miter;stroke-miterlimit:4;stroke-opacity:1;stroke-dasharray:none;marker-start:none;marker-end:none"
       d="m 810,515 0,-25"
       id="path6972"
       inkscape:connector-curvature="0"
       sodipodi:nodetypes="cc" />
    <path
       sodipodi:nodetypes="ccccc"
       style="fill:#00ff00;stroke:none"
       d="m 805,510 0,10 10,0 0,-10 z"
       id="path6974"
       inkscape:connector-curvature="0" />
    <path
       sodipodi:type="arc"
       style="fill:none;stroke:#00ff00;stroke-width:3;stroke-linecap:butt;stroke-linejoin:round;stroke-miterlimit:4;stroke-opacity:1;stroke-dasharray:none"
       id="path6976"
       sodipodi:cx="810"
       sodipodi:cy="395"
       sodipodi:rx="5"
       sodipodi:ry="5"
       d="m 815,395 c 0,2.76142 -2.23858,5 -5,5 -2.76142,0 -5,-2.23858 -5,-5 0,-2.76142 2.23858,-5 5,-5 2.76142,0 5,2.23858 5,5 z"
       transform="translate(0,90)" />
  </g>
  <g
     id="use6978"
     transform="matrix(0,1,-1,0,1355,185)">
    <path
       sodipodi:nodetypes="cc"
       inkscape:connector-curvature="0"
       id="path7375"
       d="m 810,515 0,-25"
       style="fill:none;stroke:#00ff00;stroke-width:3;stroke-linecap:butt;stroke-linejoin:miter;stroke-miterlimit:4;stroke-opacity:1;stroke-dasharray:none;marker-start:none;marker-end:none" />
    <path
       inkscape:connector-curvature="0"
       id="path7377"
       d="m 805,510 0,10 10,0 0,-10 z"
       style="fill:#00ff00;stroke:none"
       sodipodi:nodetypes="ccccc" />
    <path
       transform="translate(0,90)"
       d="m 815,395 c 0,2.76142 -2.23858,5 -5,5 -2.76142,0 -5,-2.23858 -5,-5 0,-2.76142 2.23858,-5 5,-5 2.76142,0 5,2.23858 5,5 z"
       sodipodi:ry="5"
       sodipodi:rx="5"
       sodipodi:cy="395"
       sodipodi:cx="810"
       id="path7379"
       style="fill:none;stroke:#00ff00;stroke-width:3;stroke-linecap:butt;stroke-linejoin:round;stroke-miterlimit:4;stroke-opacity:1;stroke-dasharray:none"
       sodipodi:type="arc" />
  </g>
  <text
     sodipodi:linespacing="125%"
     id="text6988"
     y="985"
     x="840"
     style="font-size:24px;font-style:normal;font-variant:normal;font-weight:normal;font-stretch:normal;text-align:start;line-height:125%;letter-spacing:0px;word-spacing:0px;writing-mode:lr-tb;text-anchor:start;fill:#008000;fill-opacity:1;stroke:none;font-family:Nimbus Sans L;-inkscape-font-specification:Nimbus Sans L"
     xml:space="preserve"><tspan
       y="985"
       x="840"
       id="tspan6990"
       sodipodi:role="line">30</tspan></text>
  <text
     xml:space="preserve"
     style="font-size:24px;font-style:normal;font-variant:normal;font-weight:normal;font-stretch:normal;text-align:start;line-height:125%;letter-spacing:0px;word-spacing:0px;writing-mode:lr-tb;text-anchor:start;fill:#008000;fill-opacity:1;stroke:none;font-family:Nimbus Sans L;-inkscape-font-specification:Nimbus Sans L"
     x="875"
     y="985"
     id="text6996"
     sodipodi:linespacing="125%"><tspan
       sodipodi:role="line"
       id="tspan6998"
       x="875"
       y="985">30</tspan></text>
  <text
     xml:space="preserve"
     style="font-size:24px;font-style:normal;font-variant:normal;font-weight:normal;font-stretch:normal;text-align:start;line-height:125%;letter-spacing:0px;word-spacing:0px;writing-mode:lr-tb;text-anchor:start;fill:#008000;fill-opacity:1;stroke:none;font-family:Nimbus Sans L;-inkscape-font-specification:Nimbus Sans L"
     x="910"
     y="1015"
     id="text7000"
     sodipodi:linespacing="125%"><tspan
       sodipodi:role="line"
       id="tspan7002"
       x="910"
       y="1015">30</tspan></text>
  <g
     id="g7455"
     transform="translate(1540,520)">
    <path
       style="fill:none;stroke:#ff0000;stroke-width:3;stroke-linecap:butt;stroke-linejoin:miter;stroke-miterlimit:4;stroke-opacity:1;stroke-dasharray:none;marker-start:none;marker-end:none"
       d="m 5,140 1125,0"
       id="path7457"
       inkscape:connector-curvature="0"
       sodipodi:nodetypes="cc" />
    <path
       sodipodi:type="arc"
       style="fill:none;stroke:#ff0000;stroke-width:3;stroke-linecap:butt;stroke-linejoin:round;stroke-miterlimit:4;stroke-opacity:1;stroke-dasharray:none"
       id="path7459"
       sodipodi:cx="0"
       sodipodi:cy="140"
       sodipodi:rx="5"
       sodipodi:ry="5"
       d="m 5,140 c 0,2.76142 -2.2385763,5 -5,5 -2.7614237,0 -5,-2.23858 -5,-5 0,-2.76142 2.2385763,-5 5,-5 2.7614237,0 5,2.23858 5,5 z" />
  </g>
  <g
     transform="translate(1540,1105)"
     id="g7461">
    <path
       sodipodi:nodetypes="cc"
       inkscape:connector-curvature="0"
       id="path7463"
       d="m 5,140 1125,0"
       style="fill:none;stroke:#ff0000;stroke-width:3;stroke-linecap:butt;stroke-linejoin:miter;stroke-miterlimit:4;stroke-opacity:1;stroke-dasharray:none;marker-start:none;marker-end:none" />
    <path
       d="m 5,140 c 0,2.76142 -2.2385763,5 -5,5 -2.7614237,0 -5,-2.23858 -5,-5 0,-2.76142 2.2385763,-5 5,-5 2.7614237,0 5,2.23858 5,5 z"
       sodipodi:ry="5"
       sodipodi:rx="5"
       sodipodi:cy="140"
       sodipodi:cx="0"
       id="path7465"
       style="fill:none;stroke:#ff0000;stroke-width:3;stroke-linecap:butt;stroke-linejoin:round;stroke-miterlimit:4;stroke-opacity:1;stroke-dasharray:none"
       sodipodi:type="arc" />
  </g>
  <g
     transform="translate(1540,1095)"
     id="g7467"
     style="opacity:0.25">
    <path
       sodipodi:nodetypes="cc"
       inkscape:connector-curvature="0"
       id="path7469"
       d="m 5,140 1125,0"
       style="fill:none;stroke:#ff0000;stroke-width:3;stroke-linecap:butt;stroke-linejoin:miter;stroke-miterlimit:4;stroke-opacity:1;stroke-dasharray:none;marker-start:none;marker-end:none" />
    <path
       d="m 5,140 c 0,2.76142 -2.2385763,5 -5,5 -2.7614237,0 -5,-2.23858 -5,-5 0,-2.76142 2.2385763,-5 5,-5 2.7614237,0 5,2.23858 5,5 z"
       sodipodi:ry="5"
       sodipodi:rx="5"
       sodipodi:cy="140"
       sodipodi:cx="0"
       id="path7471"
       style="fill:none;stroke:#ff0000;stroke-width:3;stroke-linecap:butt;stroke-linejoin:round;stroke-miterlimit:4;stroke-opacity:1;stroke-dasharray:none"
       sodipodi:type="arc" />
  </g>
  <g
     transform="translate(1540,955)"
     id="g7473">
    <path
       sodipodi:nodetypes="cc"
       inkscape:connector-curvature="0"
       id="path7475"
       d="m 5,140 1125,0"
       style="fill:none;stroke:#ff0000;stroke-width:3;stroke-linecap:butt;stroke-linejoin:miter;stroke-miterlimit:4;stroke-opacity:1;stroke-dasharray:none;marker-start:none;marker-end:none" />
    <path
       d="m 5,140 c 0,2.76142 -2.2385763,5 -5,5 -2.7614237,0 -5,-2.23858 -5,-5 0,-2.76142 2.2385763,-5 5,-5 2.7614237,0 5,2.23858 5,5 z"
       sodipodi:ry="5"
       sodipodi:rx="5"
       sodipodi:cy="140"
       sodipodi:cx="0"
       id="path7477"
       style="fill:none;stroke:#ff0000;stroke-width:3;stroke-linecap:butt;stroke-linejoin:round;stroke-miterlimit:4;stroke-opacity:1;stroke-dasharray:none"
       sodipodi:type="arc" />
  </g>
  <g
     transform="translate(1540,880)"
     id="g7479">
    <path
       sodipodi:nodetypes="cc"
       inkscape:connector-curvature="0"
       id="path7481"
       d="m 5,140 1125,0"
       style="fill:none;stroke:#ff0000;stroke-width:3;stroke-linecap:butt;stroke-linejoin:miter;stroke-miterlimit:4;stroke-opacity:1;stroke-dasharray:none;marker-start:none;marker-end:none" />
    <path
       d="m 5,140 c 0,2.76142 -2.2385763,5 -5,5 -2.7614237,0 -5,-2.23858 -5,-5 0,-2.76142 2.2385763,-5 5,-5 2.7614237,0 5,2.23858 5,5 z"
       sodipodi:ry="5"
       sodipodi:rx="5"
       sodipodi:cy="140"
       sodipodi:cx="0"
       id="path7483"
       style="fill:none;stroke:#ff0000;stroke-width:3;stroke-linecap:butt;stroke-linejoin:round;stroke-miterlimit:4;stroke-opacity:1;stroke-dasharray:none"
       sodipodi:type="arc" />
  </g>
  <g
     transform="translate(1540,855)"
     id="g7485"
     style="opacity:0.25">
    <path
       sodipodi:nodetypes="cc"
       inkscape:connector-curvature="0"
       id="path7487"
       d="m 5,140 1125,0"
       style="fill:none;stroke:#ff0000;stroke-width:3;stroke-linecap:butt;stroke-linejoin:miter;stroke-miterlimit:4;stroke-opacity:1;stroke-dasharray:none;marker-start:none;marker-end:none" />
    <path
       d="m 5,140 c 0,2.76142 -2.2385763,5 -5,5 -2.7614237,0 -5,-2.23858 -5,-5 0,-2.76142 2.2385763,-5 5,-5 2.7614237,0 5,2.23858 5,5 z"
       sodipodi:ry="5"
       sodipodi:rx="5"
       sodipodi:cy="140"
       sodipodi:cx="0"
       id="path7489"
       style="fill:none;stroke:#ff0000;stroke-width:3;stroke-linecap:butt;stroke-linejoin:round;stroke-miterlimit:4;stroke-opacity:1;stroke-dasharray:none"
       sodipodi:type="arc" />
  </g>
  <g
     transform="translate(1540,775)"
     id="g7491">
    <path
       sodipodi:nodetypes="cc"
       inkscape:connector-curvature="0"
       id="path7493"
       d="m 5,140 1125,0"
       style="fill:none;stroke:#ff0000;stroke-width:3;stroke-linecap:butt;stroke-linejoin:miter;stroke-miterlimit:4;stroke-opacity:1;stroke-dasharray:none;marker-start:none;marker-end:none" />
    <path
       d="m 5,140 c 0,2.76142 -2.2385763,5 -5,5 -2.7614237,0 -5,-2.23858 -5,-5 0,-2.76142 2.2385763,-5 5,-5 2.7614237,0 5,2.23858 5,5 z"
       sodipodi:ry="5"
       sodipodi:rx="5"
       sodipodi:cy="140"
       sodipodi:cx="0"
       id="path7495"
       style="fill:none;stroke:#ff0000;stroke-width:3;stroke-linecap:butt;stroke-linejoin:round;stroke-miterlimit:4;stroke-opacity:1;stroke-dasharray:none"
       sodipodi:type="arc" />
  </g>
  <g
     transform="translate(1540,700)"
     id="g7497">
    <path
       sodipodi:nodetypes="cc"
       inkscape:connector-curvature="0"
       id="path7499"
       d="m 5,140 1125,0"
       style="fill:none;stroke:#ff0000;stroke-width:3;stroke-linecap:butt;stroke-linejoin:miter;stroke-miterlimit:4;stroke-opacity:1;stroke-dasharray:none;marker-start:none;marker-end:none" />
    <path
       d="m 5,140 c 0,2.76142 -2.2385763,5 -5,5 -2.7614237,0 -5,-2.23858 -5,-5 0,-2.76142 2.2385763,-5 5,-5 2.7614237,0 5,2.23858 5,5 z"
       sodipodi:ry="5"
       sodipodi:rx="5"
       sodipodi:cy="140"
       sodipodi:cx="0"
       id="path7501"
       style="fill:none;stroke:#ff0000;stroke-width:3;stroke-linecap:butt;stroke-linejoin:round;stroke-miterlimit:4;stroke-opacity:1;stroke-dasharray:none"
       sodipodi:type="arc" />
  </g>
  <g
     transform="translate(1540,605)"
     id="g7503"
     style="opacity:0.25">
    <path
       sodipodi:nodetypes="cc"
       inkscape:connector-curvature="0"
       id="path7505"
       d="m 5,140 1125,0"
       style="fill:none;stroke:#ff0000;stroke-width:3;stroke-linecap:butt;stroke-linejoin:miter;stroke-miterlimit:4;stroke-opacity:1;stroke-dasharray:none;marker-start:none;marker-end:none" />
    <path
       d="m 5,140 c 0,2.76142 -2.2385763,5 -5,5 -2.7614237,0 -5,-2.23858 -5,-5 0,-2.76142 2.2385763,-5 5,-5 2.7614237,0 5,2.23858 5,5 z"
       sodipodi:ry="5"
       sodipodi:rx="5"
       sodipodi:cy="140"
       sodipodi:cx="0"
       id="path7507"
       style="fill:none;stroke:#ff0000;stroke-width:3;stroke-linecap:butt;stroke-linejoin:round;stroke-miterlimit:4;stroke-opacity:1;stroke-dasharray:none"
       sodipodi:type="arc" />
  </g>
  <g
     transform="translate(1540,595)"
     id="g7509">
    <path
       sodipodi:nodetypes="cc"
       inkscape:connector-curvature="0"
       id="path7511"
       d="m 5,140 1125,0"
       style="fill:none;stroke:#ff0000;stroke-width:3;stroke-linecap:butt;stroke-linejoin:miter;stroke-miterlimit:4;stroke-opacity:1;stroke-dasharray:none;marker-start:none;marker-end:none" />
    <path
       d="m 5,140 c 0,2.76142 -2.2385763,5 -5,5 -2.7614237,0 -5,-2.23858 -5,-5 0,-2.76142 2.2385763,-5 5,-5 2.7614237,0 5,2.23858 5,5 z"
       sodipodi:ry="5"
       sodipodi:rx="5"
       sodipodi:cy="140"
       sodipodi:cx="0"
       id="path7513"
       style="fill:none;stroke:#ff0000;stroke-width:3;stroke-linecap:butt;stroke-linejoin:round;stroke-miterlimit:4;stroke-opacity:1;stroke-dasharray:none"
       sodipodi:type="arc" />
  </g>
  <g
     transform="translate(1540,1405)"
     id="g7515">
    <path
       sodipodi:nodetypes="cc"
       inkscape:connector-curvature="0"
       id="path7517"
       d="m 5,140 1125,0"
       style="fill:none;stroke:#ff0000;stroke-width:3;stroke-linecap:butt;stroke-linejoin:miter;stroke-miterlimit:4;stroke-opacity:1;stroke-dasharray:none;marker-start:none;marker-end:none" />
    <path
       d="m 5,140 c 0,2.76142 -2.2385763,5 -5,5 -2.7614237,0 -5,-2.23858 -5,-5 0,-2.76142 2.2385763,-5 5,-5 2.7614237,0 5,2.23858 5,5 z"
       sodipodi:ry="5"
       sodipodi:rx="5"
       sodipodi:cy="140"
       sodipodi:cx="0"
       id="path7519"
       style="fill:none;stroke:#ff0000;stroke-width:3;stroke-linecap:butt;stroke-linejoin:round;stroke-miterlimit:4;stroke-opacity:1;stroke-dasharray:none"
       sodipodi:type="arc" />
  </g>
  <g
     transform="translate(1540,1330)"
     id="g7521">
    <path
       sodipodi:nodetypes="cc"
       inkscape:connector-curvature="0"
       id="path7523"
       d="m 5,140 1125,0"
       style="fill:none;stroke:#ff0000;stroke-width:3;stroke-linecap:butt;stroke-linejoin:miter;stroke-miterlimit:4;stroke-opacity:1;stroke-dasharray:none;marker-start:none;marker-end:none" />
    <path
       d="m 5,140 c 0,2.76142 -2.2385763,5 -5,5 -2.7614237,0 -5,-2.23858 -5,-5 0,-2.76142 2.2385763,-5 5,-5 2.7614237,0 5,2.23858 5,5 z"
       sodipodi:ry="5"
       sodipodi:rx="5"
       sodipodi:cy="140"
       sodipodi:cx="0"
       id="path7525"
       style="fill:none;stroke:#ff0000;stroke-width:3;stroke-linecap:butt;stroke-linejoin:round;stroke-miterlimit:4;stroke-opacity:1;stroke-dasharray:none"
       sodipodi:type="arc" />
  </g>
  <text
     sodipodi:linespacing="125%"
     id="text7527"
     y="1320"
     x="1425"
     style="font-size:32px;font-style:normal;font-variant:normal;font-weight:normal;font-stretch:normal;text-align:start;line-height:125%;letter-spacing:0px;word-spacing:0px;writing-mode:lr-tb;text-anchor:start;fill:#000000;fill-opacity:1;stroke:none;font-family:Nimbus Sans L;-inkscape-font-specification:Nimbus Sans L"
     xml:space="preserve"><tspan
       y="1320"
       x="1425"
       id="tspan7529"
       sodipodi:role="line">(0,200)</tspan></text>
  <text
     xml:space="preserve"
     style="font-size:32px;font-style:normal;font-variant:normal;font-weight:normal;font-stretch:normal;text-align:start;line-height:125%;letter-spacing:0px;word-spacing:0px;writing-mode:lr-tb;text-anchor:start;fill:#000000;fill-opacity:1;stroke:none;font-family:Nimbus Sans L;-inkscape-font-specification:Nimbus Sans L"
     x="1425"
     y="660"
     id="text7531"
     sodipodi:linespacing="125%"><tspan
       sodipodi:role="line"
       id="tspan7533"
       x="1425"
       y="660">(0,860)</tspan></text>
  <text
     sodipodi:linespacing="125%"
     id="text7535"
     y="735"
     x="1425"
     style="font-size:32px;font-style:normal;font-variant:normal;font-weight:normal;font-stretch:normal;text-align:start;line-height:125%;letter-spacing:0px;word-spacing:0px;writing-mode:lr-tb;text-anchor:start;fill:#000000;fill-opacity:1;stroke:none;font-family:Nimbus Sans L;-inkscape-font-specification:Nimbus Sans L"
     xml:space="preserve"><tspan
       y="735"
       x="1425"
       id="tspan7537"
       sodipodi:role="line">(0,785)</tspan></text>
  <text
     xml:space="preserve"
     style="font-size:32px;font-style:normal;font-variant:normal;font-weight:normal;font-stretch:normal;text-align:start;line-height:125%;letter-spacing:0px;word-spacing:0px;writing-mode:lr-tb;text-anchor:start;fill:#000000;fill-opacity:1;stroke:none;font-family:Nimbus Sans L;-inkscape-font-specification:Nimbus Sans L"
     x="1425"
     y="1020"
     id="text7539"
     sodipodi:linespacing="125%"><tspan
       sodipodi:role="line"
       id="tspan7541"
       x="1425"
       y="1020">(0,500)</tspan></text>
  <text
     sodipodi:linespacing="125%"
     id="text7543"
     y="1235"
     x="1425"
     style="font-size:32px;font-style:normal;font-variant:normal;font-weight:normal;font-stretch:normal;text-align:start;line-height:125%;letter-spacing:0px;word-spacing:0px;writing-mode:lr-tb;text-anchor:start;fill:#000000;fill-opacity:1;stroke:none;font-family:Nimbus Sans L;-inkscape-font-specification:Nimbus Sans L"
     xml:space="preserve"><tspan
       y="1235"
       x="1425"
       id="tspan7545"
       sodipodi:role="line">(0,275)</tspan></text>
  <g
     transform="translate(1540,1180)"
     id="g7547">
    <path
       sodipodi:nodetypes="cc"
       inkscape:connector-curvature="0"
       id="path7549"
       d="m 5,140 1125,0"
       style="fill:none;stroke:#ff0000;stroke-width:9;stroke-linecap:butt;stroke-linejoin:miter;stroke-miterlimit:4;stroke-opacity:1;stroke-dasharray:none;marker-start:none;marker-end:none" />
    <path
       d="m 5,140 c 0,2.76142 -2.2385763,5 -5,5 -2.7614237,0 -5,-2.23858 -5,-5 0,-2.76142 2.2385763,-5 5,-5 2.7614237,0 5,2.23858 5,5 z"
       sodipodi:ry="5"
       sodipodi:rx="5"
       sodipodi:cy="140"
       sodipodi:cx="0"
       id="path7551"
       style="fill:none;stroke:#ff0000;stroke-width:3;stroke-linecap:butt;stroke-linejoin:round;stroke-miterlimit:4;stroke-opacity:1;stroke-dasharray:none"
       sodipodi:type="arc" />
  </g>
  <path
     sodipodi:nodetypes="cc"
     style="fill:none;stroke:#000000;stroke-width:3;stroke-linecap:butt;stroke-linejoin:miter;stroke-miterlimit:4;stroke-opacity:1;stroke-dasharray:none;marker-start:url(#StopL);marker-mid:none;marker-end:url(#StopL)"
     d="m 2700,735 0,105"
     id="path7555"
     inkscape:connector-curvature="0" />
  <path
     inkscape:connector-curvature="0"
     id="path7561"
     d="m 2740,1245 0,75"
     style="fill:none;stroke:#000000;stroke-width:3;stroke-linecap:butt;stroke-linejoin:miter;stroke-miterlimit:4;stroke-opacity:1;stroke-dasharray:none;marker-start:url(#StopL);marker-mid:none;marker-end:url(#StopL)"
     sodipodi:nodetypes="cc" />
  <text
     sodipodi:linespacing="125%"
     id="text7571"
     y="1295"
     x="2755"
     style="font-size:32px;font-style:normal;font-variant:normal;font-weight:normal;font-stretch:normal;text-align:start;line-height:125%;letter-spacing:0px;word-spacing:0px;writing-mode:lr-tb;text-anchor:start;fill:#000000;fill-opacity:1;stroke:none;font-family:Nimbus Sans L;-inkscape-font-specification:Nimbus Sans L"
     xml:space="preserve"><tspan
       y="1295"
       x="2755"
       id="tspan7573"
       sodipodi:role="line">75</tspan></text>
  <text
     xml:space="preserve"
     style="font-size:32px;font-style:normal;font-variant:normal;font-weight:normal;font-stretch:normal;text-align:start;line-height:125%;letter-spacing:0px;word-spacing:0px;writing-mode:lr-tb;text-anchor:start;fill:#000000;fill-opacity:1;stroke:none;font-family:Nimbus Sans L;-inkscape-font-specification:Nimbus Sans L"
     x="2710"
     y="795"
     id="text7575"
     sodipodi:linespacing="125%"><tspan
       sodipodi:role="line"
       id="tspan7577"
       x="2710"
       y="795">105</tspan></text>
  <path
     sodipodi:nodetypes="cc"
     style="fill:none;stroke:#000000;stroke-width:3;stroke-linecap:butt;stroke-linejoin:miter;stroke-miterlimit:4;stroke-opacity:1;stroke-dasharray:none;marker-start:url(#StopL);marker-mid:none;marker-end:url(#StopL)"
     d="m 1600,580 140,0"
     id="path7583"
     inkscape:connector-curvature="0" />
  <path
     inkscape:connector-curvature="0"
     id="path7585"
     d="m 1740,620 200,0"
     style="fill:none;stroke:#000000;stroke-width:3;stroke-linecap:butt;stroke-linejoin:miter;stroke-miterlimit:4;stroke-opacity:1;stroke-dasharray:none;marker-start:url(#StopL);marker-mid:none;marker-end:url(#StopL)"
     sodipodi:nodetypes="cc" />
  <text
     sodipodi:linespacing="125%"
     id="text7589"
     y="570"
     x="1640"
     style="font-size:32px;font-style:normal;font-variant:normal;font-weight:normal;font-stretch:normal;text-align:start;line-height:125%;letter-spacing:0px;word-spacing:0px;writing-mode:lr-tb;text-anchor:start;fill:#000000;fill-opacity:1;stroke:none;font-family:Nimbus Sans L;-inkscape-font-specification:Nimbus Sans L"
     xml:space="preserve"><tspan
       y="570"
       x="1640"
       id="tspan7591"
       sodipodi:role="line">140</tspan></text>
  <text
     sodipodi:linespacing="125%"
     id="text7597"
     y="610"
     x="1820"
     style="font-size:32px;font-style:normal;font-variant:normal;font-weight:normal;font-stretch:normal;text-align:start;line-height:125%;letter-spacing:0px;word-spacing:0px;writing-mode:lr-tb;text-anchor:start;fill:#000000;fill-opacity:1;stroke:none;font-family:Nimbus Sans L;-inkscape-font-specification:Nimbus Sans L"
     xml:space="preserve"><tspan
       y="610"
       x="1820"
       id="tspan7599"
       sodipodi:role="line">200</tspan></text>
  <path
     sodipodi:nodetypes="cc"
     style="fill:none;stroke:#000000;stroke-width:6;stroke-linecap:butt;stroke-linejoin:miter;stroke-miterlimit:4;stroke-opacity:1;stroke-dasharray:none;marker-start:url(#StopL);marker-mid:none;marker-end:url(#StopL)"
     d="m 2060,520 580,0"
     id="path7601"
     inkscape:connector-curvature="0" />
  <text
     xml:space="preserve"
     style="font-size:32px;font-style:normal;font-variant:normal;font-weight:bold;font-stretch:normal;text-align:start;line-height:125%;letter-spacing:0px;word-spacing:0px;writing-mode:lr-tb;text-anchor:start;fill:#000000;fill-opacity:1;stroke:none;font-family:Nimbus Sans L;-inkscape-font-specification:Nimbus Sans L Bold"
     x="2360"
     y="500"
     id="text7603"
     sodipodi:linespacing="125%"><tspan
       sodipodi:role="line"
       id="tspan7605"
       x="2360"
       y="500">580</tspan></text>
  <path
     inkscape:connector-curvature="0"
     id="path7607"
     d="m 2820,840 0,480"
     style="fill:none;stroke:#000000;stroke-width:6;stroke-linecap:butt;stroke-linejoin:miter;stroke-miterlimit:4;stroke-opacity:1;stroke-dasharray:none;marker-start:url(#StopL);marker-mid:none;marker-end:url(#StopL)"
     sodipodi:nodetypes="cc" />
  <text
     sodipodi:linespacing="125%"
     id="text7609"
     y="1100"
     x="2840"
     style="font-size:32px;font-style:normal;font-variant:normal;font-weight:bold;font-stretch:normal;text-align:start;line-height:125%;letter-spacing:0px;word-spacing:0px;writing-mode:lr-tb;text-anchor:start;fill:#000000;fill-opacity:1;stroke:none;font-family:Nimbus Sans L;-inkscape-font-specification:Nimbus Sans L Bold"
     xml:space="preserve"><tspan
       y="1100"
       x="2840"
       id="tspan7611"
       sodipodi:role="line">480</tspan></text>
  <path
     id="path3262"
     d="m 1800,660 c -100,0 -200,0 -200,100 l 0,560 140,0 0,-405 200,0 0,-75 -200,0 0,-80 c 0,-25 25,-25 50,-25 l 150,0 0,-75 -140,0 z"
     style="fill:#000000;stroke:none"
     inkscape:connector-curvature="0" />
  <path
     id="path3271"
     d="m 2260,840 c -100,0 -200,0 -200,100 l 0,280 c 0,100 100,100 200,100 l 240,0 0,125 c 0,25 -25,25 -50,25 l -370,0 0,75 360,0 c 100,0 200,0 200,-100 l 0,-605 -380,0 z m -10,75 250,0 0,330 -250,0 c -25,0 -50,0 -50,-25 l 0,-280 c 0,-25 25,-25 50,-25 z"
     style="fill:#000000;stroke:none"
     inkscape:connector-curvature="0" />
  <text
     sodipodi:linespacing="125%"
     id="text7635"
     y="830"
     x="2080"
     style="font-size:32px;font-style:normal;font-variant:normal;font-weight:normal;font-stretch:normal;text-align:start;line-height:125%;letter-spacing:0px;word-spacing:0px;writing-mode:lr-tb;text-anchor:start;fill:#008000;fill-opacity:1;stroke:none;font-family:Nimbus Sans L;-inkscape-font-specification:Nimbus Sans L"
     xml:space="preserve"><tspan
       y="830"
       x="2080"
       id="tspan7637"
       sodipodi:role="line">100</tspan></text>
  <g
     id="g7623"
     transform="matrix(0,-1,1,0,1745,1650)">
    <path
       sodipodi:nodetypes="cc"
       inkscape:connector-curvature="0"
       id="path7625"
       d="m 810,515 0,-95"
       style="fill:none;stroke:#00ff00;stroke-width:3;stroke-linecap:butt;stroke-linejoin:miter;stroke-miterlimit:4;stroke-opacity:1;stroke-dasharray:none;marker-start:none;marker-end:none" />
    <path
       inkscape:connector-curvature="0"
       id="path7627"
       d="m 805,510 0,10 10,0 0,-10 z"
       style="fill:#00ff00;stroke:none"
       sodipodi:nodetypes="ccccc" />
    <path
       d="m 815,395 c 0,2.76142 -2.23858,5 -5,5 -2.76142,0 -5,-2.23858 -5,-5 0,-2.76142 2.23858,-5 5,-5 2.76142,0 5,2.23858 5,5 z"
       sodipodi:ry="5"
       sodipodi:rx="5"
       sodipodi:cy="395"
       sodipodi:cx="810"
       id="path7629"
       style="fill:none;stroke:#00ff00;stroke-width:3;stroke-linecap:butt;stroke-linejoin:round;stroke-miterlimit:4;stroke-opacity:1;stroke-dasharray:none"
       sodipodi:type="arc"
       transform="translate(0,20)" />
  </g>
  <g
     transform="translate(1250,425)"
     id="g7711">
    <path
       style="fill:none;stroke:#00ff00;stroke-width:3;stroke-linecap:butt;stroke-linejoin:miter;stroke-miterlimit:4;stroke-opacity:1;stroke-dasharray:none;marker-start:none;marker-end:none"
       d="m 810,515 0,-95"
       id="path7713"
       inkscape:connector-curvature="0"
       sodipodi:nodetypes="cc" />
    <path
       sodipodi:nodetypes="ccccc"
       style="fill:#00ff00;stroke:none"
       d="m 805,510 0,10 10,0 0,-10 z"
       id="path7715"
       inkscape:connector-curvature="0" />
    <path
       transform="translate(0,20)"
       sodipodi:type="arc"
       style="fill:none;stroke:#00ff00;stroke-width:3;stroke-linecap:butt;stroke-linejoin:round;stroke-miterlimit:4;stroke-opacity:1;stroke-dasharray:none"
       id="path7717"
       sodipodi:cx="810"
       sodipodi:cy="395"
       sodipodi:rx="5"
       sodipodi:ry="5"
       d="m 815,395 c 0,2.76142 -2.23858,5 -5,5 -2.76142,0 -5,-2.23858 -5,-5 0,-2.76142 2.23858,-5 5,-5 2.76142,0 5,2.23858 5,5 z" />
  </g>
  <text
     xml:space="preserve"
     style="font-size:32px;font-style:normal;font-variant:normal;font-weight:normal;font-stretch:normal;text-align:start;line-height:125%;letter-spacing:0px;word-spacing:0px;writing-mode:lr-tb;text-anchor:start;fill:#008000;fill-opacity:1;stroke:none;font-family:Nimbus Sans L;-inkscape-font-specification:Nimbus Sans L"
     x="2190"
     y="830"
     id="text7721"
     sodipodi:linespacing="125%"><tspan
       sodipodi:role="line"
       id="tspan7723"
       x="2190"
       y="830">100</tspan></text>
  <text
     sodipodi:linespacing="125%"
     id="text7725"
     y="900"
     x="2000"
     style="font-size:32px;font-style:normal;font-variant:normal;font-weight:normal;font-stretch:normal;text-align:start;line-height:125%;letter-spacing:0px;word-spacing:0px;writing-mode:lr-tb;text-anchor:start;fill:#008000;fill-opacity:1;stroke:none;font-family:Nimbus Sans L;-inkscape-font-specification:Nimbus Sans L"
     xml:space="preserve"><tspan
       y="900"
       x="2000"
       id="tspan7727"
       sodipodi:role="line">100</tspan></text>
  <g
     id="g7643"
     transform="translate(1390,425)">
    <path
       sodipodi:nodetypes="cc"
       inkscape:connector-curvature="0"
       id="path7645"
       d="m 810,515 0,-20"
       style="fill:none;stroke:#00ff00;stroke-width:3;stroke-linecap:butt;stroke-linejoin:miter;stroke-miterlimit:4;stroke-opacity:1;stroke-dasharray:none;marker-start:none;marker-end:none" />
    <path
       inkscape:connector-curvature="0"
       id="path7647"
       d="m 805,510 0,10 10,0 0,-10 z"
       style="fill:#00ff00;stroke:none"
       sodipodi:nodetypes="ccccc" />
    <path
       transform="translate(0,95)"
       d="m 815,395 c 0,2.76142 -2.23858,5 -5,5 -2.76142,0 -5,-2.23858 -5,-5 0,-2.76142 2.23858,-5 5,-5 2.76142,0 5,2.23858 5,5 z"
       sodipodi:ry="5"
       sodipodi:rx="5"
       sodipodi:cy="395"
       sodipodi:cx="810"
       id="path7649"
       style="fill:none;stroke:#00ff00;stroke-width:3;stroke-linecap:butt;stroke-linejoin:round;stroke-miterlimit:4;stroke-opacity:1;stroke-dasharray:none"
       sodipodi:type="arc" />
  </g>
  <g
     transform="matrix(0,-1,1,0,1735,1725)"
     id="g7729">
    <path
       style="fill:none;stroke:#00ff00;stroke-width:3;stroke-linecap:butt;stroke-linejoin:miter;stroke-miterlimit:4;stroke-opacity:1;stroke-dasharray:none;marker-start:none;marker-end:none"
       d="m 810,515 0,-20"
       id="path7731"
       inkscape:connector-curvature="0"
       sodipodi:nodetypes="cc" />
    <path
       sodipodi:nodetypes="ccccc"
       style="fill:#00ff00;stroke:none"
       d="m 805,510 0,10 10,0 0,-10 z"
       id="path7733"
       inkscape:connector-curvature="0" />
    <path
       sodipodi:type="arc"
       style="fill:none;stroke:#00ff00;stroke-width:3;stroke-linecap:butt;stroke-linejoin:round;stroke-miterlimit:4;stroke-opacity:1;stroke-dasharray:none"
       id="path7735"
       sodipodi:cx="810"
       sodipodi:cy="395"
       sodipodi:rx="5"
       sodipodi:ry="5"
       d="m 815,395 c 0,2.76142 -2.23858,5 -5,5 -2.76142,0 -5,-2.23858 -5,-5 0,-2.76142 2.23858,-5 5,-5 2.76142,0 5,2.23858 5,5 z"
       transform="translate(0,95)" />
  </g>
  <text
     sodipodi:linespacing="125%"
     id="text7667"
     y="900"
     x="2195"
     style="font-size:24px;font-style:normal;font-variant:normal;font-weight:normal;font-stretch:normal;text-align:start;line-height:125%;letter-spacing:0px;word-spacing:0px;writing-mode:lr-tb;text-anchor:start;fill:#008000;fill-opacity:1;stroke:none;font-family:Nimbus Sans L;-inkscape-font-specification:Nimbus Sans L"
     xml:space="preserve"><tspan
       y="900"
       x="2195"
       id="tspan7669"
       sodipodi:role="line">25</tspan></text>
  <text
     xml:space="preserve"
     style="font-size:24px;font-style:normal;font-variant:normal;font-weight:normal;font-stretch:normal;text-align:start;line-height:125%;letter-spacing:0px;word-spacing:0px;writing-mode:lr-tb;text-anchor:start;fill:#008000;fill-opacity:1;stroke:none;font-family:Nimbus Sans L;-inkscape-font-specification:Nimbus Sans L"
     x="2230"
     y="900"
     id="text7739"
     sodipodi:linespacing="125%"><tspan
       sodipodi:role="line"
       id="tspan7741"
       x="2230"
       y="900">25</tspan></text>
  <text
     sodipodi:linespacing="125%"
     id="text7743"
     y="935"
     x="2165"
     style="font-size:24px;font-style:normal;font-variant:normal;font-weight:normal;font-stretch:normal;text-align:start;line-height:125%;letter-spacing:0px;word-spacing:0px;writing-mode:lr-tb;text-anchor:start;fill:#008000;fill-opacity:1;stroke:none;font-family:Nimbus Sans L;-inkscape-font-specification:Nimbus Sans L"
     xml:space="preserve"><tspan
       y="935"
       x="2165"
       id="tspan7745"
       sodipodi:role="line">25</tspan></text>
  <path
     inkscape:connector-curvature="0"
     id="path7849"
     d="m 2060,580 140,0"
     style="fill:none;stroke:#000000;stroke-width:3;stroke-linecap:butt;stroke-linejoin:miter;stroke-miterlimit:4;stroke-opacity:1;stroke-dasharray:none;marker-start:url(#StopL);marker-mid:none;marker-end:url(#StopL)"
     sodipodi:nodetypes="cc" />
  <text
     xml:space="preserve"
     style="font-size:32px;font-style:normal;font-variant:normal;font-weight:normal;font-stretch:normal;text-align:start;line-height:125%;letter-spacing:0px;word-spacing:0px;writing-mode:lr-tb;text-anchor:start;fill:#000000;fill-opacity:1;stroke:none;font-family:Nimbus Sans L;-inkscape-font-specification:Nimbus Sans L"
     x="2100"
     y="570"
     id="text7851"
     sodipodi:linespacing="125%"><tspan
       sodipodi:role="line"
       id="tspan7853"
       x="2100"
       y="570">140</tspan></text>
  <path
     sodipodi:nodetypes="cc"
     style="fill:none;stroke:#000000;stroke-width:3;stroke-linecap:butt;stroke-linejoin:miter;stroke-miterlimit:4;stroke-opacity:1;stroke-dasharray:none;marker-start:url(#StopL);marker-mid:none;marker-end:url(#StopL)"
     d="m 2200,620 300,0"
     id="path7855"
     inkscape:connector-curvature="0" />
  <text
     xml:space="preserve"
     style="font-size:32px;font-style:normal;font-variant:normal;font-weight:normal;font-stretch:normal;text-align:start;line-height:125%;letter-spacing:0px;word-spacing:0px;writing-mode:lr-tb;text-anchor:start;fill:#000000;fill-opacity:1;stroke:none;font-family:Nimbus Sans L;-inkscape-font-specification:Nimbus Sans L"
     x="2330"
     y="610"
     id="text7857"
     sodipodi:linespacing="125%"><tspan
       sodipodi:role="line"
       id="tspan7859"
       x="2330"
       y="610">300</tspan></text>
  <path
     sodipodi:nodetypes="cc"
     style="fill:none;stroke:#000000;stroke-width:3;stroke-linecap:butt;stroke-linejoin:miter;stroke-miterlimit:4;stroke-opacity:1;stroke-dasharray:none;marker-start:url(#StopL);marker-mid:none;marker-end:url(#StopL)"
     d="m 2500,580 140,0"
     id="path7861"
     inkscape:connector-curvature="0" />
  <text
     sodipodi:linespacing="125%"
     id="text7863"
     y="570"
     x="2540"
     style="font-size:32px;font-style:normal;font-variant:normal;font-weight:normal;font-stretch:normal;text-align:start;line-height:125%;letter-spacing:0px;word-spacing:0px;writing-mode:lr-tb;text-anchor:start;fill:#000000;fill-opacity:1;stroke:none;font-family:Nimbus Sans L;-inkscape-font-specification:Nimbus Sans L"
     xml:space="preserve"><tspan
       y="570"
       x="2540"
       id="tspan7865"
       sodipodi:role="line">140</tspan></text>
  <path
     sodipodi:nodetypes="cc"
     style="fill:none;stroke:#000000;stroke-width:3;stroke-linecap:butt;stroke-linejoin:miter;stroke-miterlimit:4;stroke-opacity:1;stroke-dasharray:none;marker-start:url(#StopL);marker-mid:none;marker-end:url(#StopL)"
     d="m 2740,660 0,75"
     id="path7867"
     inkscape:connector-curvature="0" />
  <text
     xml:space="preserve"
     style="font-size:32px;font-style:normal;font-variant:normal;font-weight:normal;font-stretch:normal;text-align:start;line-height:125%;letter-spacing:0px;word-spacing:0px;writing-mode:lr-tb;text-anchor:start;fill:#000000;fill-opacity:1;stroke:none;font-family:Nimbus Sans L;-inkscape-font-specification:Nimbus Sans L"
     x="2755"
     y="710"
     id="text7869"
     sodipodi:linespacing="125%"><tspan
       sodipodi:role="line"
       id="tspan7871"
       x="2755"
       y="710">75</tspan></text>
  <path
     inkscape:connector-curvature="0"
     id="path7873"
     d="m 2740,840 0,75"
     style="fill:none;stroke:#000000;stroke-width:3;stroke-linecap:butt;stroke-linejoin:miter;stroke-miterlimit:4;stroke-opacity:1;stroke-dasharray:none;marker-start:url(#StopL);marker-mid:none;marker-end:url(#StopL)"
     sodipodi:nodetypes="cc" />
  <text
     sodipodi:linespacing="125%"
     id="text7875"
     y="890"
     x="2755"
     style="font-size:32px;font-style:normal;font-variant:normal;font-weight:normal;font-stretch:normal;text-align:start;line-height:125%;letter-spacing:0px;word-spacing:0px;writing-mode:lr-tb;text-anchor:start;fill:#000000;fill-opacity:1;stroke:none;font-family:Nimbus Sans L;-inkscape-font-specification:Nimbus Sans L"
     xml:space="preserve"><tspan
       y="890"
       x="2755"
       id="tspan7877"
       sodipodi:role="line">75</tspan></text>
  <path
     sodipodi:nodetypes="cc"
     style="fill:none;stroke:#000000;stroke-width:3;stroke-linecap:butt;stroke-linejoin:miter;stroke-miterlimit:4;stroke-opacity:1;stroke-dasharray:none;marker-start:url(#StopL);marker-mid:none;marker-end:url(#StopL)"
     d="m 2740,1020 0,75"
     id="path7879"
     inkscape:connector-curvature="0" />
  <text
     xml:space="preserve"
     style="font-size:32px;font-style:normal;font-variant:normal;font-weight:normal;font-stretch:normal;text-align:start;line-height:125%;letter-spacing:0px;word-spacing:0px;writing-mode:lr-tb;text-anchor:start;fill:#000000;fill-opacity:1;stroke:none;font-family:Nimbus Sans L;-inkscape-font-specification:Nimbus Sans L"
     x="2755"
     y="1070"
     id="text7881"
     sodipodi:linespacing="125%"><tspan
       sodipodi:role="line"
       id="tspan7883"
       x="2755"
       y="1070">75</tspan></text>
  <path
     inkscape:connector-curvature="0"
     id="path7885"
     d="m 2740,1470 0,75"
     style="fill:none;stroke:#000000;stroke-width:3;stroke-linecap:butt;stroke-linejoin:miter;stroke-miterlimit:4;stroke-opacity:1;stroke-dasharray:none;marker-start:url(#StopL);marker-mid:none;marker-end:url(#StopL)"
     sodipodi:nodetypes="cc" />
  <text
     sodipodi:linespacing="125%"
     id="text7887"
     y="1520"
     x="2755"
     style="font-size:32px;font-style:normal;font-variant:normal;font-weight:normal;font-stretch:normal;text-align:start;line-height:125%;letter-spacing:0px;word-spacing:0px;writing-mode:lr-tb;text-anchor:start;fill:#000000;fill-opacity:1;stroke:none;font-family:Nimbus Sans L;-inkscape-font-specification:Nimbus Sans L"
     xml:space="preserve"><tspan
       y="1520"
       x="2755"
       id="tspan7889"
       sodipodi:role="line">75</tspan></text>
  <path
     inkscape:connector-curvature="0"
     id="path7891"
     d="m 2700,915 0,105"
     style="fill:none;stroke:#000000;stroke-width:3;stroke-linecap:butt;stroke-linejoin:miter;stroke-miterlimit:4;stroke-opacity:1;stroke-dasharray:none;marker-start:url(#StopL);marker-mid:none;marker-end:url(#StopL)"
     sodipodi:nodetypes="cc" />
  <text
     sodipodi:linespacing="125%"
     id="text7893"
     y="975"
     x="2710"
     style="font-size:32px;font-style:normal;font-variant:normal;font-weight:normal;font-stretch:normal;text-align:start;line-height:125%;letter-spacing:0px;word-spacing:0px;writing-mode:lr-tb;text-anchor:start;fill:#000000;fill-opacity:1;stroke:none;font-family:Nimbus Sans L;-inkscape-font-specification:Nimbus Sans L"
     xml:space="preserve"><tspan
       y="975"
       x="2710"
       id="tspan7895"
       sodipodi:role="line">105</tspan></text>
  <path
     sodipodi:nodetypes="cc"
     style="fill:none;stroke:#000000;stroke-width:3;stroke-linecap:butt;stroke-linejoin:miter;stroke-miterlimit:4;stroke-opacity:1;stroke-dasharray:none;marker-start:url(#StopL);marker-mid:none;marker-end:url(#StopL)"
     d="m 2700,1095 0,150"
     id="path7897"
     inkscape:connector-curvature="0" />
  <text
     xml:space="preserve"
     style="font-size:32px;font-style:normal;font-variant:normal;font-weight:normal;font-stretch:normal;text-align:start;line-height:125%;letter-spacing:0px;word-spacing:0px;writing-mode:lr-tb;text-anchor:start;fill:#000000;fill-opacity:1;stroke:none;font-family:Nimbus Sans L;-inkscape-font-specification:Nimbus Sans L"
     x="2710"
     y="1185"
     id="text7899"
     sodipodi:linespacing="125%"><tspan
       sodipodi:role="line"
       id="tspan7901"
       x="2710"
       y="1185">150</tspan></text>
  <path
     inkscape:connector-curvature="0"
     id="path7903"
     d="m 2700,1320 0,150"
     style="fill:none;stroke:#000000;stroke-width:3;stroke-linecap:butt;stroke-linejoin:miter;stroke-miterlimit:4;stroke-opacity:1;stroke-dasharray:none;marker-start:url(#StopL);marker-mid:none;marker-end:url(#StopL)"
     sodipodi:nodetypes="cc" />
  <text
     sodipodi:linespacing="125%"
     id="text7905"
     y="1410"
     x="2710"
     style="font-size:32px;font-style:normal;font-variant:normal;font-weight:normal;font-stretch:normal;text-align:start;line-height:125%;letter-spacing:0px;word-spacing:0px;writing-mode:lr-tb;text-anchor:start;fill:#000000;fill-opacity:1;stroke:none;font-family:Nimbus Sans L;-inkscape-font-specification:Nimbus Sans L"
     xml:space="preserve"><tspan
       y="1410"
       x="2710"
       id="tspan7907"
       sodipodi:role="line">150</tspan></text>
  <text
     xml:space="preserve"
     style="font-size:32px;font-style:normal;font-variant:normal;font-weight:normal;font-stretch:normal;text-align:start;line-height:125%;letter-spacing:0px;word-spacing:0px;writing-mode:lr-tb;text-anchor:start;fill:#000000;fill-opacity:1;stroke:none;font-family:Nimbus Sans L;-inkscape-font-specification:Nimbus Sans L"
     x="1425"
     y="1095"
     id="text7911"
     sodipodi:linespacing="125%"><tspan
       sodipodi:role="line"
       id="tspan7913"
       x="1425"
       y="1095">(0,425)</tspan></text>
  <text
     sodipodi:linespacing="125%"
     id="text7915"
     y="915"
     x="1425"
     style="font-size:32px;font-style:normal;font-variant:normal;font-weight:normal;font-stretch:normal;text-align:start;line-height:125%;letter-spacing:0px;word-spacing:0px;writing-mode:lr-tb;text-anchor:start;fill:#000000;fill-opacity:1;stroke:none;font-family:Nimbus Sans L;-inkscape-font-specification:Nimbus Sans L"
     xml:space="preserve"><tspan
       y="915"
       x="1425"
       id="tspan7917"
       sodipodi:role="line">(0,605)</tspan></text>
  <text
     xml:space="preserve"
     style="font-size:32px;font-style:normal;font-variant:normal;font-weight:normal;font-stretch:normal;text-align:start;line-height:125%;letter-spacing:0px;word-spacing:0px;writing-mode:lr-tb;text-anchor:start;fill:#000000;fill-opacity:1;stroke:none;font-family:Nimbus Sans L;-inkscape-font-specification:Nimbus Sans L"
     x="1425"
     y="840"
     id="text7919"
     sodipodi:linespacing="125%"><tspan
       sodipodi:role="line"
       id="tspan7921"
       x="1425"
       y="840">(0,680)</tspan></text>
  <text
     xml:space="preserve"
     style="font-size:32px;font-style:normal;font-variant:normal;font-weight:normal;font-stretch:normal;text-align:start;line-height:125%;letter-spacing:0px;word-spacing:0px;writing-mode:lr-tb;text-anchor:start;fill:#000000;fill-opacity:1;stroke:none;font-family:Nimbus Sans L;-inkscape-font-specification:Nimbus Sans L"
     x="1425"
     y="1470"
     id="text7923"
     sodipodi:linespacing="125%"><tspan
       sodipodi:role="line"
       id="tspan7925"
       x="1425"
       y="1470">(0,50)</tspan></text>
  <text
     sodipodi:linespacing="125%"
     id="text7927"
     y="1545"
     x="1425"
     style="font-size:32px;font-style:normal;font-variant:normal;font-weight:normal;font-stretch:normal;text-align:start;line-height:125%;letter-spacing:0px;word-spacing:0px;writing-mode:lr-tb;text-anchor:start;fill:#000000;fill-opacity:1;stroke:none;font-family:Nimbus Sans L;-inkscape-font-specification:Nimbus Sans L"
     xml:space="preserve"><tspan
       y="1545"
       x="1425"
       id="tspan7929"
       sodipodi:role="line">(0,-25)</tspan></text>
  <path
     id="path3256"
     d="m 155,1660 120,120 -120,120 85,0 77.5,-77.5 77.5,77.5 85,0 -120,-120 120,-120 -85,0 -77.5,77.5 -77.5,-77.5 -85,0 z"
     style="fill:#000000;stroke:none"
     inkscape:connector-curvature="0" />
  <path
     id="path3188"
     d="m 610,1660 120,240 90,0 120,-240 -75,0 -90,180 -90,-180 -75,0 z"
     style="fill:#000000;stroke:none"
     inkscape:connector-curvature="0" />
  <path
     style="fill:#008000;stroke:#00ff00;stroke-width:9;stroke-linecap:butt;stroke-linejoin:miter;stroke-miterlimit:4;stroke-opacity:1;stroke-dasharray:none"
     d="m 480,1660 0,120 -120,0"
     id="path7973"
     inkscape:connector-curvature="0" />
  <text
     xml:space="preserve"
     style="font-size:64px;font-style:normal;font-variant:normal;font-weight:bold;font-stretch:normal;text-align:start;line-height:125%;letter-spacing:0px;word-spacing:0px;writing-mode:lr-tb;text-anchor:start;fill:#008000;fill-opacity:1;stroke:none;font-family:Nimbus Sans L;-inkscape-font-specification:Nimbus Sans L Bold"
     x="420"
     y="1840"
     id="text7975"
     sodipodi:linespacing="125%"><tspan
       sodipodi:role="line"
       id="tspan7977"
       x="420"
       y="1840">1</tspan></text>
  <text
     sodipodi:linespacing="125%"
     id="text7979"
     y="1740"
     x="500"
     style="font-size:64px;font-style:normal;font-variant:normal;font-weight:bold;font-stretch:normal;text-align:start;line-height:125%;letter-spacing:0px;word-spacing:0px;writing-mode:lr-tb;text-anchor:start;fill:#008000;fill-opacity:1;stroke:none;font-family:Nimbus Sans L;-inkscape-font-specification:Nimbus Sans L Bold"
     xml:space="preserve"><tspan
       y="1740"
       x="500"
       id="tspan7981"
       sodipodi:role="line">1</tspan></text>
  <path
     style="fill:#008000;stroke:#00ff00;stroke-width:9;stroke-linecap:butt;stroke-linejoin:miter;stroke-miterlimit:4;stroke-opacity:1;stroke-dasharray:none"
     d="m 940,1660 0,240 -120,0"
     id="path7983"
     inkscape:connector-curvature="0" />
  <text
     sodipodi:linespacing="125%"
     id="text7985"
     y="1960"
     x="868"
     style="font-size:64px;font-style:normal;font-variant:normal;font-weight:bold;font-stretch:normal;text-align:start;line-height:125%;letter-spacing:0px;word-spacing:0px;writing-mode:lr-tb;text-anchor:start;fill:#008000;fill-opacity:1;stroke:none;font-family:Nimbus Sans L;-inkscape-font-specification:Nimbus Sans L Bold"
     xml:space="preserve"><tspan
       y="1960"
       x="868"
       id="tspan7987"
       sodipodi:role="line">1</tspan></text>
  <text
     xml:space="preserve"
     style="font-size:64px;font-style:normal;font-variant:normal;font-weight:bold;font-stretch:normal;text-align:start;line-height:125%;letter-spacing:0px;word-spacing:0px;writing-mode:lr-tb;text-anchor:start;fill:#008000;fill-opacity:1;stroke:none;font-family:Nimbus Sans L;-inkscape-font-specification:Nimbus Sans L Bold"
     x="960"
     y="1808"
     id="text7989"
     sodipodi:linespacing="125%"><tspan
       sodipodi:role="line"
       id="tspan7991"
       x="960"
       y="1808">2</tspan></text>
  <path
     id="path3190"
     d="m 1030,1660 80,240 80,0 55,-165 55,165 80,0 80,-240 -70,0 -57.5,172.5 -52.5,-157.5 -70,0 -57.5,157.5 -52.5,-172.5 -70,0 z"
     style="fill:#000000;stroke:none"
     inkscape:connector-curvature="0" />
  <path
     inkscape:connector-curvature="0"
     id="path8013"
     d="m 1460,1660 0,240 -80,0"
     style="fill:#008000;stroke:#00ff00;stroke-width:9;stroke-linecap:butt;stroke-linejoin:miter;stroke-miterlimit:4;stroke-opacity:1;stroke-dasharray:none"
     sodipodi:nodetypes="ccc" />
  <text
     xml:space="preserve"
     style="font-size:64px;font-style:normal;font-variant:normal;font-weight:bold;font-stretch:normal;text-align:start;line-height:125%;letter-spacing:0px;word-spacing:0px;writing-mode:lr-tb;text-anchor:start;fill:#008000;fill-opacity:1;stroke:none;font-family:Nimbus Sans L;-inkscape-font-specification:Nimbus Sans L Bold"
     x="1406"
     y="1962"
     id="text8015"
     sodipodi:linespacing="125%"><tspan
       sodipodi:role="line"
       id="tspan8017"
       x="1406"
       y="1962">1</tspan></text>
  <text
     sodipodi:linespacing="125%"
     id="text8019"
     y="1806"
     x="1480"
     style="font-size:64px;font-style:normal;font-variant:normal;font-weight:bold;font-stretch:normal;text-align:start;line-height:125%;letter-spacing:0px;word-spacing:0px;writing-mode:lr-tb;text-anchor:start;fill:#008000;fill-opacity:1;stroke:none;font-family:Nimbus Sans L;-inkscape-font-specification:Nimbus Sans L Bold"
     xml:space="preserve"><tspan
       y="1806"
       x="1480"
       id="tspan8021"
       sodipodi:role="line">3</tspan></text>
  <text
     xml:space="preserve"
     style="font-size:64px;font-style:normal;font-variant:normal;font-weight:bold;font-stretch:normal;text-align:start;line-height:125%;letter-spacing:0px;word-spacing:0px;writing-mode:lr-tb;text-anchor:start;fill:#000000;fill-opacity:1;stroke:none;font-family:Nimbus Sans L;-inkscape-font-specification:Nimbus Sans L Bold"
     x="280"
     y="400"
     id="text8023"
     sodipodi:linespacing="125%"><tspan
       sodipodi:role="line"
       x="280"
       y="400"
       id="tspan8027">Capital Letters / Numbers</tspan></text>
  <text
     sodipodi:linespacing="125%"
     id="text8031"
     y="400"
     x="1800"
     style="font-size:64px;font-style:normal;font-variant:normal;font-weight:bold;font-stretch:normal;text-align:start;line-height:125%;letter-spacing:0px;word-spacing:0px;writing-mode:lr-tb;text-anchor:start;fill:#000000;fill-opacity:1;stroke:none;font-family:Nimbus Sans L;-inkscape-font-specification:Nimbus Sans L Bold"
     xml:space="preserve"><tspan
       id="tspan8033"
       y="400"
       x="1800"
       sodipodi:role="line">Lowercase Letters</tspan></text>
  <text
     sodipodi:linespacing="125%"
     id="text8035"
     y="1460"
     x="160"
     style="font-size:64px;font-style:normal;font-variant:normal;font-weight:bold;font-stretch:normal;text-align:start;line-height:125%;letter-spacing:0px;word-spacing:0px;writing-mode:lr-tb;text-anchor:start;fill:#000000;fill-opacity:1;stroke:none;font-family:Nimbus Sans L;-inkscape-font-specification:Nimbus Sans L Bold"
     xml:space="preserve"><tspan
       id="tspan8037"
       y="1460"
       x="160"
       sodipodi:role="line">Diagonals</tspan></text>
  <text
     xml:space="preserve"
     style="font-size:128px;font-style:normal;font-variant:normal;font-weight:bold;font-stretch:normal;text-align:start;line-height:125%;letter-spacing:0px;word-spacing:0px;writing-mode:lr-tb;text-anchor:start;fill:#000000;fill-opacity:1;stroke:none;font-family:Nimbus Sans L;-inkscape-font-specification:Nimbus Sans L Bold"
     x="240"
     y="160"
     id="text8039"
     sodipodi:linespacing="125%"><tspan
       sodipodi:role="line"
       id="tspan8041"
       x="240"
       y="160">General Measurements Xolonium 1.0</tspan></text>
  <text
     sodipodi:linespacing="125%"
     id="text8043"
     y="220"
     x="240"
     style="font-size:32px;font-style:normal;font-variant:normal;font-weight:normal;font-stretch:normal;text-align:start;line-height:125%;letter-spacing:0px;word-spacing:0px;writing-mode:lr-tb;text-anchor:start;fill:#000000;fill-opacity:1;stroke:none;font-family:Nimbus Sans L;-inkscape-font-specification:Nimbus Sans L"
     xml:space="preserve"><tspan
       y="220"
       x="240"
       sodipodi:role="line"
       id="tspan8047">Some characters deviate, though I tried to keep deviation at a minimum.</tspan><tspan
       y="260"
       x="240"
       sodipodi:role="line"
       id="tspan3305">Special characters generally have a vertical or diagonal thickness of (close to) 120. Their proportions should be similar to the ones below.</tspan><tspan
       y="300"
       x="240"
       sodipodi:role="line"
       id="tspan3307">Side bearings (same at both sides): 70 (capitals), 60 (lowercase), 20 (diagonal extremities, e.g. A, V, v, X, x, ...). Side bearings of special characters vary, check them directly.</tspan></text>
  <text
     xml:space="preserve"
     style="font-size:32px;font-style:normal;font-variant:normal;font-weight:normal;font-stretch:normal;text-align:start;line-height:125%;letter-spacing:0px;word-spacing:0px;writing-mode:lr-tb;text-anchor:start;fill:#000000;fill-opacity:1;stroke:none;font-family:Nimbus Sans L;-inkscape-font-specification:Nimbus Sans L"
     x="160"
     y="1520"
     id="text8049"
     sodipodi:linespacing="125%"><tspan
       sodipodi:role="line"
       id="tspan8051"
       x="160"
       y="1520">I tried to use slopes of whole numbers (or simple 1:x fractions). </tspan><tspan
       sodipodi:role="line"
       x="160"
       y="1560"
       id="tspan3286">The thickness of the lines is a matter of trial and error.</tspan><tspan
       sodipodi:role="line"
       x="160"
       y="1600"
       id="tspan8053">Some characters deviate (e.g. <tspan
   style="font-weight:bold;-inkscape-font-specification:Nimbus Sans L Bold"
   id="tspan8055">z<tspan
   style="font-weight:normal;-inkscape-font-specification:Nimbus Sans L"
   id="tspan3309">, where normalised width was more important)</tspan></tspan></tspan></text>
  <path
     style="fill:#0000ff;stroke:#00ffff;stroke-width:2;stroke-linecap:butt;stroke-linejoin:miter;stroke-miterlimit:4;stroke-opacity:1;stroke-dasharray:none"
     d="m 970,940 -50,50 70,-30 z"
     id="path8057"
     inkscape:connector-curvature="0"
     sodipodi:nodetypes="cccc" />
  <text
     sodipodi:linespacing="125%"
     id="text8059"
     y="995"
     x="955"
     style="font-size:24px;font-style:normal;font-variant:normal;font-weight:normal;font-stretch:normal;text-align:start;line-height:125%;letter-spacing:0px;word-spacing:0px;writing-mode:lr-tb;text-anchor:start;fill:#00ffff;fill-opacity:1;stroke:none;font-family:Nimbus Sans L;-inkscape-font-specification:Nimbus Sans L"
     xml:space="preserve"><tspan
       y="995"
       x="955"
       id="tspan8061"
       sodipodi:role="line">4:1</tspan></text>
  <path
     sodipodi:nodetypes="cccc"
     inkscape:connector-curvature="0"
     id="path8063"
     d="m 2130,860 50,50 -70,-30 z"
     style="fill:#0000ff;stroke:#00ffff;stroke-width:2;stroke-linecap:butt;stroke-linejoin:miter;stroke-miterlimit:4;stroke-opacity:1;stroke-dasharray:none" />
  <text
     xml:space="preserve"
     style="font-size:24px;font-style:normal;font-variant:normal;font-weight:normal;font-stretch:normal;text-align:start;line-height:125%;letter-spacing:0px;word-spacing:0px;writing-mode:lr-tb;text-anchor:start;fill:#00ffff;fill-opacity:1;stroke:none;font-family:Nimbus Sans L;-inkscape-font-specification:Nimbus Sans L"
     x="2115"
     y="915"
     id="text8065"
     sodipodi:linespacing="125%"><tspan
       sodipodi:role="line"
       id="tspan8067"
       x="2115"
       y="915">4:1</tspan></text>
  <text
     xml:space="preserve"
     style="font-size:32px;font-style:normal;font-variant:normal;font-weight:normal;font-stretch:normal;text-align:start;line-height:125%;letter-spacing:0px;word-spacing:0px;writing-mode:lr-tb;text-anchor:start;fill:#000000;fill-opacity:1;stroke:none;font-family:Nimbus Sans L;-inkscape-font-specification:Nimbus Sans L"
     x="280"
     y="460"
     id="text3279"
     sodipodi:linespacing="125%"><tspan
       id="tspan3285"
       sodipodi:role="line"
       x="280"
       y="460">Open letters (e.g. C,E,F) have a width of 700 (150+550)</tspan></text>
  <text
     sodipodi:linespacing="125%"
     id="text3281"
     y="1820"
     x="500"
     style="font-size:64px;font-style:normal;font-variant:normal;font-weight:bold;font-stretch:normal;text-align:start;line-height:125%;letter-spacing:0px;word-spacing:0px;writing-mode:lr-tb;text-anchor:start;fill:#008000;fill-opacity:1;stroke:none;font-family:Nimbus Sans L;-inkscape-font-specification:Nimbus Sans L Bold"
     xml:space="preserve"><tspan
       y="1820"
       x="500"
       id="tspan3283"
       sodipodi:role="line">:</tspan></text>
  <text
     xml:space="preserve"
     style="font-size:64px;font-style:normal;font-variant:normal;font-weight:bold;font-stretch:normal;text-align:start;line-height:125%;letter-spacing:0px;word-spacing:0px;writing-mode:lr-tb;text-anchor:start;fill:#008000;fill-opacity:1;stroke:none;font-family:Nimbus Sans L;-inkscape-font-specification:Nimbus Sans L Bold"
     x="960"
     y="1920"
     id="text3285"
     sodipodi:linespacing="125%"><tspan
       sodipodi:role="line"
       id="tspan3287"
       x="960"
       y="1920">:</tspan></text>
  <text
     sodipodi:linespacing="125%"
     id="text3289"
     y="1920"
     x="1480"
     style="font-size:64px;font-style:normal;font-variant:normal;font-weight:bold;font-stretch:normal;text-align:start;line-height:125%;letter-spacing:0px;word-spacing:0px;writing-mode:lr-tb;text-anchor:start;fill:#008000;fill-opacity:1;stroke:none;font-family:Nimbus Sans L;-inkscape-font-specification:Nimbus Sans L Bold"
     xml:space="preserve"><tspan
       y="1920"
       x="1480"
       id="tspan3291"
       sodipodi:role="line">:</tspan></text>
</svg>
